Network:,Bcube Servers,,,,
numPorts,Max Level,prefix,,,
4,2,10,,,
,,,,,
Server:,server1,,,,
Delay [us],Bandwidth [Gb],PortPower [W],CoreMaxPower [W],RoutingCoreUsage [p.u],NumResources
0,0,0,0,0,5
,,,,,
Switch:,switch1,,,,
Delay [us],Bandwidth [Gb],PortPower [W],BasePower [W],,
0,0,0,0,,
