Network:,Fat Tree Servers,,,,
numPods,prefix,,,,
8,10,,,,
,,,,,
Server:,,,,,
Delay [us],Bandwidth [Gb],PortPower [W],CoreMaxPower [W],RoutingCoreUsage [p.u],NumResources
200,0,2,3,0.3,10
,,,,,
Switch:,,,,,
Delay [us],Bandwidth [Gb],PortPower [W],BasePower [W],,
200,0,2,50.00%,,
